0.169110
0.169110
0.169110
0.169110
0.169110
0.169110
0.169110
0.169110
0.161290
0.161290
0.161290
0.161290
0.161290
0.162268
0.161290
0.161290
0.161290
0.161290
0.161290
0.161290
0.161290
0.161290
0.161290
0.161290
0.161290
0.161290
0.161290
0.161290
0.161290
0.161290
0.161290
0.161290
0.161290
0.161290
0.161290
0.161290
0.161290
0.161290
0.161290
0.161290
0.161290
0.161290
0.161290
0.161290
0.161290
0.161290
0.161290
0.161290
0.161290
0.161290
0.161290
0.161290
0.161290
0.161290
0.161290
0.161290
0.161290
0.161290
0.161290
0.161290
0.161290
0.161290
0.161290
0.161290
0.161290
0.161290
0.161290
0.161290
0.161290
0.161290
0.161290
0.161290
0.161290
0.161290
0.161290
0.161290
0.161290
0.161290
0.161290
0.161290
0.161290
0.161290
0.161290
0.161290
0.162268
0.161290
0.161290
0.161290
0.161290
0.161290
0.161290
0.161290
0.161290
0.161290
0.161290
0.161290
0.161290
0.161290
0.161290
0.161290
0.161290
0.161290
0.161290
0.161290
0.161290
0.161290
0.161290
0.161290
0.161290
0.161290
0.161290
0.161290
0.161290
0.161290
0.161290
0.161290
0.161290
0.161290
0.161290
0.161290
0.161290
0.161290
0.161290
0.161290
0.161290
0.161290
0.161290
0.161290
0.161290
0.161290
0.161290
0.161290
0.161290
0.161290
0.161290
0.161290
0.161290
0.161290
0.161290
0.161290
0.161290
0.161290
0.161290
0.161290
0.161290
0.161290
0.161290
0.161290
0.161290
0.161290
0.161290
0.161290
0.161290
0.161290
0.161290
0.161290
0.161290
0.161290
0.161290
0.161290
0.161290
0.161290
0.161290
0.161290
0.161290
0.161290
0.161290
0.161290
0.161290
0.161290
0.161290
0.161290
0.161290
0.161290
0.161290
0.161290
0.161290
0.161290
0.161290
0.161290
0.161290
0.161290
0.161290
0.161290
0.161290
0.161290
0.161290
0.161290
0.161290
0.161290
0.161290
0.161290
0.161290
0.161290
0.161290
0.161290
0.161290
0.161290
0.161290
0.161290
0.161290
0.161290
0.161290
0.161290
0.161290
0.161290
0.161290
0.161290
0.161290
0.161290
0.161290
0.161290
0.161290
0.161290
0.161290
0.161290
0.161290
0.161290
0.161290
0.161290
0.161290
0.161290
0.161290
0.161290
0.161290
0.161290
0.161290
0.161290
0.161290
0.161290
0.161290
0.161290
0.161290
0.161290
0.161290
0.161290
0.161290
0.161290
0.161290
0.161290
0.161290
0.161290
0.161290
0.161290
0.161290
0.161290
0.161290
0.161290
0.161290
0.161290
0.161290
0.161290
0.161290
0.161290
0.161290
0.161290
0.161290
0.161290
0.161290
0.161290
0.161290
0.161290
0.161290
0.161290
0.161290
0.161290
0.161290
0.161290
0.161290
0.161290
0.161290
0.161290
0.161290
0.161290
0.162268
0.161290
0.161290
0.161290
0.161290
0.161290
0.161290
0.161290
0.161290
0.161290
0.161290
0.161290
0.161290
0.161290
0.161290
0.161290
0.161290
0.161290
0.161290
0.161290
0.162268
0.161290
0.161290
0.161290
0.161290
0.161290
0.161290
0.161290
0.161290
0.161290
0.161290
0.161290
0.161290
0.161290
0.161290
0.161290
0.161290
0.161290
0.161290
0.161290
0.161290
0.161290
0.161290
0.161290
0.161290
0.161290
0.161290
0.161290
0.161290
0.161290
0.161290
0.161290
0.161290
0.161290
0.161290
0.161290
0.161290
0.161290
0.161290
0.161290
0.161290
0.161290
0.161290
0.161290
0.161290
0.161290
0.161290
0.161290
0.161290
0.161290
0.161290
0.161290
0.161290
0.161290
0.161290
0.161290
0.161290
0.161290
0.161290
0.161290
0.161290
0.161290
0.161290
0.161290
0.161290
0.161290
0.161290
0.161290
0.161290
0.161290
0.161290
0.161290
0.161290
0.161290
0.161290
0.161290
0.161290
0.161290
0.161290
0.161290
0.161290
0.161290
0.161290
0.161290
0.161290
0.161290
0.161290
0.161290
0.161290
0.161290
0.161290
0.161290
0.161290
0.161290
0.161290
0.161290
0.161290
0.161290
0.161290
0.161290
0.161290
0.161290
0.161290
0.161290
0.161290
0.161290
0.161290
0.161290
0.161290
0.161290
0.161290
0.161290
0.161290
0.161290
0.161290
0.161290
0.161290
0.161290
0.161290
0.161290
0.161290
0.161290
0.161290
0.161290
0.161290
0.161290
0.161290
0.161290
0.161290
0.161290
0.161290
0.161290
0.161290
0.161290
0.161290
0.161290
0.161290
0.161290
0.161290
0.161290
0.162268
0.161290
0.161290
0.161290
0.161290
0.161290
0.161290
0.161290
0.161290
0.161290
0.161290
0.161290
0.161290
0.161290
0.161290
0.161290
0.161290
0.161290
0.161290
0.161290
0.161290
0.161290
0.161290
0.161290
0.161290
0.161290
0.161290
0.161290
0.161290
0.161290
0.161290
0.161290
0.161290
0.161290
0.161290
0.161290
0.161290
0.161290
0.161290
0.161290
0.161290
0.161290
0.161290
0.161290
0.161290
0.161290
0.161290
0.161290
0.161290
0.161290
0.161290
0.161290
0.161290
0.161290
0.161290
0.161290
0.161290
0.161290
0.161290
0.161290
0.161290
0.161290
0.161290
0.161290
0.161290
0.161290
0.161290
0.161290
0.161290
0.161290
0.161290
0.161290
0.161290
0.161290
0.161290
0.161290
0.161290
0.161290
0.161290
0.161290
0.161290
0.161290
0.161290
0.161290
0.161290
0.161290
0.161290
0.161290
0.161290
0.161290
0.161290
0.161290
0.161290
0.161290
0.161290
0.161290
0.161290
0.161290
0.161290
0.161290
0.161290
0.161290
0.161290
0.161290
0.161290
0.161290
0.161290
0.161290
0.161290
0.161290
0.161290
0.161290
0.161290
0.161290
0.161290
0.161290
0.161290
0.161290
0.161290
0.161290
0.161290
0.161290
0.161290
0.161290
0.161290
0.161290
0.161290
0.161290
0.161290
0.161290
0.161290
0.161290
0.169110
0.169110
0.169110
0.169110
0.169110
0.169110
0.169110
0.169110
0.169110
0.169110
0.169110
0.169110
0.169110
0.169110
0.169110
0.169110
0.169110
0.169110
0.169110
0.169110
0.169110
0.169110
0.169110
0.169110
0.169110
0.169110
0.169110
0.169110
0.169110
0.169110
0.169110
0.169110
0.170088
0.169110
0.169110
0.169110
0.169110
0.169110
0.169110
0.169110
0.169110
0.169110
0.169110
0.169110
0.169110
0.169110
0.169110
0.169110
0.169110
0.169110
0.169110
0.169110
0.169110
0.169110
0.169110
0.169110
0.169110
0.169110
0.169110
0.169110
0.169110
0.169110
0.169110
0.169110
0.169110
0.169110
0.169110
0.169110
0.169110
0.169110
0.169110
0.169110
0.169110
0.169110
0.169110
0.169110
0.169110
0.169110
0.169110
0.169110
0.169110
0.169110
0.169110
0.169110
0.169110
0.169110
0.169110
0.169110
0.169110
0.169110
0.169110
0.169110
0.169110
0.169110
0.169110
0.169110
0.169110
0.169110
0.169110
0.169110
0.169110
0.169110
0.169110
0.169110
0.169110
0.169110
0.169110
0.169110
0.169110
0.169110
0.169110
0.169110
0.169110
0.169110
0.169110
0.169110
0.169110
0.169110
0.169110
0.169110
0.169110
0.169110
0.169110
0.169110
0.169110
0.169110
0.169110
0.169110
0.169110
0.169110
0.169110
0.169110
0.169110
0.169110
0.169110
0.169110
0.169110
0.169110
0.169110
0.169110
0.169110
0.169110
0.169110
0.169110
0.169110
0.169110
0.169110
0.169110
0.169110
0.169110
0.169110
0.169110
0.169110
0.169110
0.169110
0.169110
0.169110
0.169110
0.169110
0.169110
0.169110
0.169110
0.169110
0.169110
0.169110
0.170088
0.169110
0.169110
0.169110
0.169110
0.169110
0.169110
0.169110
0.169110
0.169110
0.169110
0.169110
0.169110
0.169110
0.169110
0.169110
0.169110
0.169110
0.169110
0.169110
0.169110
0.169110
0.169110
0.169110
0.169110
0.169110
0.169110
0.169110
0.169110
0.169110
0.169110
0.169110
0.169110
0.169110
0.169110
0.169110
0.169110
0.169110
0.169110
0.169110
0.169110
0.169110
0.169110
0.169110
0.169110
0.169110
0.169110
0.169110
0.169110
0.169110
0.169110
0.169110
0.169110
0.169110
0.169110
0.169110
0.169110
0.169110
0.169110
0.169110
0.169110
0.169110
0.169110
0.169110
0.169110
0.169110
0.169110
0.169110
0.169110
0.169110
0.169110
0.169110
0.169110
0.169110
0.169110
0.169110
0.169110
0.169110
0.169110
0.169110
0.169110
0.169110
0.169110
0.169110
0.169110
0.169110
0.169110
0.169110
0.169110
0.169110
0.169110
0.169110
0.169110
0.169110
0.169110
0.169110
0.169110
0.169110
0.169110
0.169110
0.169110
0.169110
0.169110
0.169110
0.169110
0.169110
0.169110
0.169110
0.169110
0.169110
0.169110
0.169110
0.169110
0.169110
0.169110
0.169110
0.169110
0.169110
0.169110
0.169110
0.169110
0.169110
0.169110
0.169110
0.169110
0.169110
0.169110
0.169110
0.169110
0.169110
0.169110
0.169110
0.169110
0.169110
0.169110
0.169110
0.169110
0.169110
0.169110
0.169110
0.169110
0.169110
0.169110
0.169110
0.169110
0.169110
0.169110
0.169110
0.169110
0.169110
0.169110
0.169110
0.169110
0.169110
0.169110
0.169110
0.169110
0.169110
0.169110
0.169110
0.169110
0.169110
0.169110
0.169110
0.169110
0.169110
0.169110
0.169110
0.169110
0.169110
0.169110
0.169110
0.169110
0.169110
0.169110
0.169110
0.169110
0.169110
0.169110
0.169110
0.169110
0.169110
0.169110
0.169110
0.169110
0.169110
0.169110
0.169110
0.169110
0.169110
0.169110
0.169110
0.169110
0.169110
0.169110
0.169110
0.169110
0.169110
0.169110
0.169110
0.169110
0.169110
0.169110
0.169110
0.169110
0.169110
0.169110
0.169110
0.169110
0.169110
0.169110
0.169110
0.169110
0.169110
0.169110
0.169110
0.169110
0.169110
0.169110
0.169110
0.169110
0.169110
0.169110
0.169110
0.169110
0.169110
0.169110
0.169110
0.169110
0.169110
0.169110
0.169110
0.169110
0.169110
0.169110
0.169110
0.169110
0.169110
0.169110
0.169110
0.169110
0.169110
0.169110
0.169110
0.169110
0.169110
0.169110
0.169110
0.169110
0.170088
0.169110
0.169110
0.169110
0.169110
0.169110
0.169110
0.169110
0.169110
0.169110
0.169110
0.169110
0.169110
0.169110
0.169110
0.169110
0.169110
0.169110
0.169110
0.169110
0.169110
0.169110
0.169110
0.169110
0.169110
0.169110
0.169110
0.169110
0.169110
0.169110
0.169110
0.169110
0.169110
0.169110
0.169110
0.169110
0.169110
0.169110
0.169110
0.169110
0.169110
0.169110
0.169110
0.169110
0.169110
0.169110
0.169110
0.169110
0.169110
0.169110
0.169110
0.169110
0.169110
0.169110
0.169110
0.169110
0.169110
0.169110
0.169110
0.169110
0.169110
0.169110
0.169110
0.169110
0.169110
0.169110
0.169110
0.169110
0.169110
0.169110
0.169110
0.169110
0.169110
0.169110
0.169110
0.169110
0.169110
0.169110
0.169110
0.169110
0.169110
0.169110
0.169110
0.169110
0.169110
0.169110
0.169110
0.169110
0.169110
0.169110
0.169110
0.169110
0.169110
0.169110
0.169110
0.169110
0.169110
0.169110
0.169110
0.169110
0.169110
0.169110
0.169110
0.169110
0.169110
0.169110
0.169110
0.169110
0.169110
0.169110
0.169110
0.169110
0.169110
0.169110
0.169110
0.169110
0.169110
0.169110
0.169110
0.169110
0.169110
0.169110
0.169110
0.169110
0.169110
0.169110
0.169110
0.169110
0.169110
0.169110
0.169110
0.169110
0.169110
0.169110
0.169110
0.169110
0.169110
0.169110
0.169110
0.169110
0.169110
0.169110
0.169110
0.169110
0.169110
0.169110
0.169110
0.169110
0.169110
0.169110
0.169110
0.169110
0.169110
0.169110
0.169110
0.169110
0.169110
0.169110
0.169110
0.169110
0.169110
0.169110
0.169110
0.169110
0.169110
0.169110
0.169110
0.169110
0.169110
0.169110
0.169110
0.169110
0.169110
0.169110
0.169110
0.169110
0.169110
0.169110
0.169110
0.169110
0.169110
0.169110
0.169110
0.169110
0.169110
0.169110
0.169110
0.169110
0.169110
0.169110
0.169110
0.169110
0.169110
0.169110
0.169110
0.169110
0.169110
0.169110
0.169110
0.169110
0.169110
0.169110
0.169110
0.169110
0.169110
0.170088
0.169110
0.169110
0.169110
0.169110
0.169110
0.169110
0.169110
0.169110
0.169110
0.169110
0.169110
0.169110
0.169110
0.169110
0.169110
0.169110
0.169110
0.169110
0.169110
0.169110
0.169110
0.169110
0.169110
0.169110
0.169110
0.169110
0.169110
0.169110
0.169110
0.169110
0.169110
0.169110
0.169110
0.169110
0.169110
0.169110
0.169110
0.169110
0.169110
0.169110
0.169110
0.169110
0.169110
0.169110
0.169110
0.169110
0.169110
0.169110
0.169110
0.169110
0.169110
0.169110
0.169110
0.169110
0.169110
0.169110
0.169110
0.169110
0.169110
0.169110
0.169110
0.169110
0.169110
0.169110
0.169110
0.169110
0.169110
0.169110
0.169110
0.169110
0.169110
0.169110
0.169110
0.169110
0.169110
0.169110
0.169110
0.169110
0.169110
0.169110
0.169110
0.169110
0.169110
0.169110
0.169110
0.169110
0.169110
0.169110
0.169110
0.169110
0.169110
0.169110
0.169110
0.169110
0.169110
0.169110
0.169110
0.169110
0.169110
0.169110
0.169110
0.169110
0.169110
0.169110
0.169110
0.169110
0.169110
0.169110
0.169110
0.169110
0.169110
0.169110
0.169110
0.169110
0.169110
0.169110
0.169110
0.169110
0.169110
0.169110
0.169110
0.169110
0.169110
0.169110
0.169110
0.169110
0.169110
0.169110
0.169110
0.169110
0.169110
0.169110
0.169110
0.169110
0.169110
0.169110
0.169110
0.169110
0.169110
0.169110
0.169110
0.169110
0.169110
0.169110
0.169110
0.169110
0.169110
0.169110
0.169110
0.169110
0.169110
0.169110
0.169110
0.169110
0.169110
0.169110
0.169110
0.169110
0.169110
0.169110
0.169110
0.169110
0.169110
0.169110
0.169110
0.169110
0.169110
0.169110
0.169110
0.169110
0.169110
0.169110
0.169110
0.169110
0.169110
0.169110
0.169110
0.169110
0.169110
0.169110
0.169110
0.169110
0.169110
0.169110
0.169110
0.169110
0.169110
0.169110
0.169110
0.169110
0.169110
0.169110
0.169110
0.169110
0.169110
0.169110
0.169110
0.169110
0.169110
0.169110
0.169110
0.169110
0.169110
0.169110
0.169110
0.169110
0.169110
0.169110
0.169110
0.169110
0.169110
0.169110
0.169110
0.169110
0.169110
0.169110
0.169110
0.169110
0.169110
0.169110
0.169110
0.169110
0.169110
0.169110
0.169110
0.169110
0.169110
0.169110
0.169110
0.169110
0.169110
0.169110
0.169110
0.169110
0.169110
0.169110
0.169110
0.169110
0.169110
0.169110
0.169110
0.169110
0.169110
0.169110
0.169110
0.169110
0.169110
0.169110
0.169110
0.169110
0.169110
0.169110
0.169110
0.169110
0.169110
0.169110
0.169110
0.169110
0.169110
0.169110
0.169110
0.169110
0.169110
0.169110
0.169110
0.169110
0.169110
0.169110
0.169110
0.169110
0.169110
0.169110
0.169110
0.169110
0.169110
0.169110
0.169110
0.169110
0.169110
0.169110
0.169110
0.169110
0.169110
0.169110
0.169110
0.169110
0.169110
0.169110
0.169110
0.169110
0.169110
0.169110
0.169110
0.169110
0.169110
0.169110
0.169110
0.169110
0.169110
0.169110
0.169110
0.169110
0.169110
0.169110
0.169110
0.169110
0.169110
0.169110
0.169110
0.169110
0.169110
0.169110
0.169110
0.169110
0.169110
0.169110
0.169110
0.169110
0.169110
0.169110
0.169110
0.169110
0.169110
0.169110
0.169110
0.169110
0.169110
0.169110
0.169110
0.169110
0.169110
0.169110
0.169110
0.169110
0.169110
0.169110
0.169110
0.169110
0.169110
0.169110
0.169110
0.169110
0.169110
0.169110
0.169110
0.169110
0.169110
0.169110
0.169110
0.169110
0.169110
0.169110
0.169110
0.169110
0.170088
0.169110
0.169110
0.169110
0.169110
0.169110
0.169110
0.169110
0.169110
0.169110
0.169110
0.169110
0.169110
0.169110
0.169110
0.169110
0.169110
0.169110
0.169110
0.169110
0.170088
0.169110
0.169110
0.169110
0.169110
0.169110
0.169110
0.169110
0.169110
0.169110
0.169110
0.169110
0.169110
0.169110
0.169110
0.169110
0.169110
0.169110
0.169110
0.169110
0.169110
0.169110
0.169110
0.169110
0.169110
0.169110
0.169110
0.169110
0.169110
0.169110
0.169110
0.169110
0.169110
0.169110
0.169110
0.169110
0.169110
0.169110
0.169110
0.169110
0.169110
0.169110
0.169110
0.169110
0.169110
0.169110
0.169110
0.169110
0.169110
0.169110
0.169110
0.169110
0.169110
0.169110
0.169110
0.169110
0.169110
0.169110
0.169110
0.169110
0.169110
0.169110
0.169110
0.169110
0.169110
0.169110
0.169110
0.169110
0.169110
0.169110
0.169110
0.169110
0.169110
0.169110
0.169110
0.169110
0.169110
0.169110
0.169110
0.169110
0.169110
0.169110
0.169110
0.169110
0.169110
0.169110
0.169110
0.169110
0.169110
0.169110
0.169110
0.169110
0.169110
0.169110
0.169110
0.169110
0.169110
0.169110
0.169110
0.169110
0.169110
0.169110
0.169110
0.169110
0.169110
0.169110
0.169110
0.169110
0.169110
0.169110
0.169110
0.169110
0.169110
0.169110
0.169110
0.169110
0.169110
0.169110
0.169110
0.169110
0.169110
0.169110
0.169110
0.169110
0.169110
0.169110
0.169110
0.169110
0.169110
0.169110
0.169110
0.169110
0.169110
0.169110
0.169110
0.169110
0.169110
0.169110
0.169110
0.169110
0.169110
0.169110
0.169110
0.169110
0.169110
0.169110
0.169110
0.169110
0.169110
0.169110
0.169110
0.169110
0.169110
0.169110
0.169110
0.169110
0.169110
0.169110
0.169110
0.169110
0.169110
0.169110
0.169110
0.169110
0.169110
0.169110
0.169110
0.169110
0.169110
0.169110
0.169110
0.169110
0.169110
0.169110
0.169110
0.169110
0.169110
0.169110
0.169110
0.169110
0.169110
0.169110
0.169110
0.169110
0.169110
0.169110
0.169110
0.169110
0.169110
0.169110
0.169110
0.169110
0.169110
0.169110
0.169110
0.169110
0.169110
0.169110
0.169110
0.169110
0.169110
0.169110
0.169110
0.169110
0.169110
0.169110
0.169110
0.169110
0.169110
0.169110
0.169110
0.169110
0.169110
0.169110
0.169110
0.169110
0.169110
0.169110
0.169110
0.169110
0.169110
0.169110
0.169110
0.169110
0.169110
0.169110
0.169110
0.169110
0.169110
0.169110
0.169110
0.169110
0.169110
0.169110
0.169110
0.169110
0.169110
0.169110
0.169110
0.169110
0.169110
0.169110
0.169110
0.169110
0.169110
0.169110
0.169110
0.169110
0.169110
0.169110
0.169110
0.169110
0.169110
0.169110
0.169110
0.169110
0.169110
0.169110
0.169110
0.169110
0.169110
0.169110
0.169110
0.169110
0.169110
0.169110
0.169110
0.169110
0.169110
0.169110
0.169110
0.169110
0.169110
0.169110
0.169110
0.169110
0.169110
0.169110
0.169110
0.169110
0.169110
0.169110
0.169110
0.169110
0.169110
0.169110
0.169110
0.169110
0.169110
0.169110
0.169110
0.169110
0.169110
0.169110
0.169110
0.169110
0.169110
0.169110
0.169110
0.169110
0.169110
0.169110
0.169110
0.169110
0.169110
0.169110
0.169110
0.169110
0.169110
0.169110
0.169110
0.169110
0.169110
0.169110
0.169110
0.169110
0.169110
0.169110
0.169110
0.169110
0.169110
0.169110
0.169110
0.169110
0.169110
0.169110
0.169110
0.169110
0.169110
0.169110
0.169110
0.169110
0.169110
0.169110
0.169110
0.169110
0.169110
0.169110
0.169110
0.169110
0.169110
0.169110
0.169110
0.169110
0.169110
0.169110
0.169110
0.169110
0.169110
0.169110
0.169110
0.169110
0.169110
0.169110
0.169110
0.169110
0.169110
0.169110
0.169110
0.169110
0.169110
0.169110
0.169110
0.169110
0.169110
0.169110
0.169110
0.169110
0.169110
0.169110
0.169110
0.169110
0.169110
0.169110
0.169110
0.169110
0.169110
0.169110
0.169110
0.169110
0.169110
0.169110
0.169110
0.169110
0.169110
0.169110
0.169110
0.169110
0.169110
0.169110
0.169110
0.169110
0.169110
0.169110
0.169110
0.169110
0.169110
0.169110
0.169110
0.169110
0.169110
0.169110
0.169110
0.169110
0.169110
0.169110
0.169110
0.169110
0.169110
0.169110
0.169110
0.169110
0.169110
0.169110
0.169110
0.169110
0.169110
0.169110
0.169110
0.169110
0.169110
0.169110
0.169110
0.169110
0.169110
0.169110
0.169110
0.169110
0.169110
0.169110
0.169110
0.169110
0.169110
0.169110
0.169110
0.169110
0.169110
0.169110
0.169110
0.169110
0.169110
0.169110
0.169110
0.169110
0.169110
0.169110
0.169110
0.169110
0.169110
0.169110
0.169110
0.169110
0.169110
0.169110
0.169110
0.169110
0.169110
0.169110
0.169110
0.169110
0.169110
0.169110
0.169110
0.169110
0.169110
0.169110
0.169110
0.169110
0.169110
0.169110
0.169110
0.169110
0.169110
0.169110
0.169110
0.169110
0.169110
0.169110
0.169110
0.169110
0.169110
0.169110
0.169110
0.169110
0.169110
0.169110
0.169110
0.169110
0.169110
0.169110
0.169110
0.169110
0.169110
0.169110
0.169110
0.169110
0.169110
0.169110
0.169110
0.169110
0.169110
0.169110
0.169110
0.169110
0.169110
0.169110
0.169110
0.169110
0.169110
0.169110
0.170088
0.169110
0.169110
0.169110
0.169110
0.169110
0.169110
0.169110
0.169110
0.169110
0.169110
0.169110
0.169110
0.169110
0.169110
0.169110
0.169110
0.169110
0.169110
0.169110
0.169110
0.169110
0.169110
0.169110
0.169110
0.169110
0.169110
0.169110
0.169110
0.169110
0.169110
0.169110
0.169110
0.169110
0.169110
0.169110
0.169110
0.169110
0.169110
0.169110
0.169110
0.169110
0.169110
0.169110
0.169110
0.169110
0.169110
0.169110
0.169110
0.169110
0.169110
0.169110
0.169110
0.169110
0.169110
0.169110
0.169110
0.169110
0.169110
0.169110
0.169110
0.169110
0.169110
0.169110
0.169110
0.169110
0.169110
0.169110
0.169110
0.169110
0.169110
0.169110
0.169110
0.169110
0.169110
0.169110
0.169110
0.169110
0.169110
0.169110
0.169110
0.169110
0.169110
0.169110
0.169110
0.169110
0.169110
0.169110
0.169110
0.169110
0.169110
0.169110
0.169110
0.169110
0.169110
0.169110
0.169110
0.169110
0.169110
0.169110
0.169110
0.169110
0.170088
0.169110
0.169110
0.169110
0.169110
0.169110
0.169110
0.169110
0.169110
0.169110
0.169110
0.169110
0.169110
0.169110
0.169110
0.169110
0.169110
0.169110
0.169110
0.169110
0.169110
0.169110
0.169110
0.169110
0.169110
0.169110
0.169110
0.169110
0.169110
0.169110
0.169110
0.169110
0.169110
0.169110
0.169110
0.169110
0.169110
0.169110
0.169110
0.169110
0.169110
0.169110
0.169110
0.169110
0.169110
0.169110
0.169110
0.169110
0.169110
0.169110
0.169110
0.169110
0.169110
0.169110
0.169110
0.169110
0.169110
0.169110
0.169110
0.169110
0.169110
0.169110
0.169110
0.169110
0.169110
0.169110
0.169110
0.169110
0.169110
0.169110
0.169110
0.169110
0.169110
0.169110
0.169110
0.169110
0.169110
0.169110
0.169110
0.169110
0.169110
0.169110
0.169110
0.169110
0.169110
0.169110
0.169110
0.169110
0.169110
0.169110
0.169110
0.169110
0.169110
0.169110
0.169110
0.169110
0.169110
0.169110
0.169110
0.169110
0.169110
0.169110
0.169110
0.169110
0.169110
0.169110
0.169110
0.169110
0.169110
0.169110
0.169110
0.169110
0.169110
0.169110
0.169110
0.169110
0.169110
0.169110
0.169110
0.169110
0.169110
0.169110
0.169110
0.169110
0.169110
0.169110
0.169110
0.169110
0.169110
0.169110
0.169110
0.169110
0.169110
0.169110
0.169110
0.169110
0.169110
0.169110
0.169110
0.169110
0.169110
0.169110
0.169110
0.169110
0.169110
0.169110
0.169110
0.169110
0.169110
0.169110
0.169110
0.169110
0.169110
0.169110
0.169110
0.169110
0.169110
0.169110
0.169110
0.169110
0.169110
0.169110
0.169110
0.169110
0.169110
0.169110
0.169110
0.169110
0.169110
0.169110
0.169110
0.169110
0.169110
0.169110
0.169110
0.169110
0.169110
0.169110
0.169110
0.169110
0.169110
0.169110
0.169110
0.169110
0.169110
0.169110
0.169110
0.169110
0.169110
0.169110
0.169110
0.169110
0.169110
0.169110
0.169110
0.169110
0.169110
0.169110
0.169110
0.169110
0.169110
0.169110
0.169110
0.169110
0.169110
0.169110
0.169110
0.169110
0.169110
0.169110
0.169110
0.169110
0.169110
0.169110
0.169110
0.169110
0.169110
0.169110
0.169110
0.169110
0.169110
0.169110
0.169110
0.169110
0.169110
0.169110
0.169110
0.169110
0.169110
0.169110
0.169110
0.169110
0.169110
0.169110
0.169110
0.169110
0.169110
0.169110
0.169110
0.169110
0.169110
0.169110
0.169110
0.169110
0.169110
0.169110
0.169110
0.169110
0.169110
0.169110
0.169110
0.169110
0.169110
0.169110
0.169110
0.169110
0.169110
0.169110
0.169110
0.169110
0.169110
0.169110
0.169110
0.169110
0.169110
0.169110
0.169110
0.169110
0.169110
0.169110
0.169110
0.169110
0.169110
0.169110
0.169110
0.169110
0.169110
0.169110
0.169110
0.169110
0.169110
0.169110
0.169110
0.169110
0.169110
0.169110
0.169110
0.169110
0.169110
0.169110
0.169110
0.169110
0.169110
0.169110
0.169110
0.169110
0.169110
0.169110
0.169110
0.169110
0.169110
0.169110
0.169110
0.169110
0.169110
0.169110
0.169110
0.169110
0.169110
0.169110
0.169110
0.169110
0.169110
0.169110
0.169110
0.169110
0.169110
0.169110
0.169110
0.169110
0.169110
0.169110
0.169110
0.169110
0.169110
0.169110
0.169110
0.169110
0.169110
0.169110
0.169110
0.169110
0.169110
0.169110
0.169110
0.169110
0.169110
0.169110
0.169110
0.169110
0.169110
0.169110
0.169110
0.169110
0.169110
0.169110
0.169110
0.169110
0.169110
0.169110
0.169110
0.169110
0.169110
0.169110
0.169110
0.169110
0.169110
0.169110
0.169110
0.169110
0.169110
0.169110
0.169110
0.169110
0.169110
0.169110
0.169110
0.169110
0.169110
0.169110
0.169110
0.169110
0.169110
0.169110
0.169110
0.169110
0.169110
0.169110
0.169110
0.169110
0.169110
0.169110
0.169110
0.169110
0.169110
0.169110
0.169110
0.169110
0.169110
0.169110
0.169110
0.169110
0.169110
0.169110
0.169110
0.169110
0.169110
0.169110
0.169110
0.169110
0.169110
0.169110
0.169110
0.169110
0.169110
0.169110
0.169110
0.169110
0.170088
0.169110
0.169110
0.169110
0.169110
0.169110
0.169110
0.169110
0.169110
0.169110
0.169110
0.169110
0.169110
0.169110
0.169110
0.169110
0.169110
0.169110
0.169110
0.169110
0.169110
0.169110
0.169110
0.169110
0.169110
0.169110
0.169110
0.169110
0.169110
0.169110
0.169110
0.169110
0.169110
0.169110
0.169110
0.169110
0.169110
0.169110
0.169110
0.169110
0.169110
0.169110
0.169110
0.169110
0.169110
0.169110
0.169110
0.169110
0.169110
0.169110
0.169110
0.169110
0.169110
0.169110
0.169110
0.169110
0.169110
0.169110
0.169110
0.169110
0.169110
0.169110
0.169110
0.169110
0.169110
0.169110
0.169110
0.169110
0.169110
0.169110
0.169110
0.169110
0.169110
0.169110
0.169110
0.169110
0.169110
0.169110
0.169110
0.169110
0.169110
0.169110
0.169110
0.169110
0.169110
0.169110
0.169110
0.169110
0.169110
0.169110
0.169110
0.169110
0.169110
0.169110
0.169110
0.169110
0.169110
0.169110
0.169110
0.169110
0.169110
0.169110
0.169110
0.169110
0.169110
0.169110
0.169110
0.169110
0.169110
0.169110
0.169110
0.169110
0.169110
0.169110
0.169110
0.169110
0.169110
0.169110
0.169110
0.169110
0.169110
0.169110
0.169110
0.169110
0.169110
0.169110
0.169110
0.169110
0.169110
0.169110
0.169110
0.169110
0.169110
0.169110
0.169110
0.169110
0.169110
0.169110
0.169110
0.169110
0.169110
0.169110
0.169110
0.169110
0.169110
0.169110
0.169110
0.169110
0.169110
0.169110
0.169110
0.169110
0.169110
0.169110
0.170088
0.169110
0.169110
0.169110
0.169110
0.169110
0.169110
0.169110
0.169110
0.169110
0.169110
0.169110
0.169110
0.169110
0.169110
0.169110
0.169110
0.169110
0.169110
0.169110
0.169110
0.169110
0.169110
0.169110
0.169110
0.169110
0.169110
0.169110
0.169110
0.169110
0.169110
0.169110
0.169110
0.169110
0.169110
0.170088
0.169110
0.169110
0.169110
0.169110
0.169110
0.169110
0.169110
0.169110
0.169110
0.169110
0.169110
0.169110
0.169110
0.169110
0.169110
0.169110
0.169110
0.169110
0.169110
0.169110
0.169110
0.169110
0.169110
0.169110
0.169110
0.169110
0.169110
0.169110
0.169110
0.169110
0.169110
0.169110
0.169110
0.169110
0.169110
0.169110
0.169110
0.169110
0.169110
0.169110
0.169110
0.169110
0.169110
0.169110
0.169110
0.169110
0.169110
0.169110
0.169110
0.169110
0.169110
0.169110
0.169110
0.169110
0.169110
0.169110
0.169110
0.169110
0.169110
0.169110
0.169110
0.169110
0.169110
0.169110
0.169110
0.169110
0.169110
0.169110
0.169110
0.169110
0.169110
0.169110
0.169110
0.169110
0.169110
0.169110
0.169110
0.169110
0.169110
0.169110
0.169110
0.169110
0.169110
0.169110
0.169110
0.169110
0.169110
0.169110
0.169110
0.169110
0.169110
0.169110
0.169110
0.169110
0.169110
0.169110
0.169110
0.169110
0.169110
0.169110
0.169110
0.169110
0.169110
0.169110
0.169110
0.169110
0.169110
0.169110
0.169110
0.169110
0.169110
0.169110
0.169110
0.169110
0.169110
0.169110
0.169110
0.169110
0.169110
0.169110
0.169110
0.169110
0.169110
0.169110
0.169110
0.169110
0.169110
0.169110
0.169110
0.169110
0.169110
0.169110
0.169110
0.169110
0.169110
0.169110
0.169110
0.169110
0.169110
0.169110
0.169110
0.169110
0.169110
0.169110
0.169110
0.169110
0.169110
0.169110
0.169110
0.169110
0.169110
0.169110
0.169110
0.169110
0.169110
0.169110
0.169110
0.169110
0.169110
0.169110
0.169110
0.169110
0.169110
0.169110
0.169110
0.169110
0.169110
0.169110
0.169110
0.169110
0.169110
0.169110
0.169110
0.169110
0.169110
0.169110
0.169110
0.169110
0.169110
0.169110
0.169110
0.169110
0.169110
0.169110
0.169110
0.169110
0.169110
0.169110
0.169110
0.169110
0.169110
0.169110
0.169110
0.169110
0.169110
0.169110
0.169110
0.169110
0.169110
0.169110
0.169110
0.169110
0.169110
0.169110
0.169110
0.169110
0.169110
0.169110
0.169110
0.169110
0.169110
0.169110
0.169110
0.169110
0.169110
0.169110
0.169110
0.169110
0.169110
0.169110
0.170088
0.169110
0.169110
0.169110
0.169110
0.169110
0.169110
0.169110
0.169110
0.169110
0.169110
0.169110
0.169110
0.169110
0.169110
0.169110
0.169110
0.169110
0.169110
0.169110
0.169110
0.169110
0.169110
0.169110
0.169110
0.169110
0.169110
0.169110
0.169110
0.169110
0.169110
0.169110
0.169110
0.169110
0.169110
0.169110
0.169110
0.169110
0.169110
0.169110
0.169110
0.169110
0.169110
0.169110
0.169110
0.169110
0.169110
0.169110
0.169110
0.169110
0.170088
0.169110
0.169110
0.169110
0.169110
0.169110
0.169110
0.169110
0.169110
0.169110
0.169110
0.169110
0.169110
0.169110
0.169110
0.169110
0.169110
0.169110
0.169110
0.169110
0.169110
0.169110
0.169110
0.169110
0.169110
0.169110
0.169110
0.169110
0.169110
0.169110
0.169110
0.169110
0.169110
0.169110
0.169110
0.169110
0.169110
0.169110
0.169110
0.169110
0.169110
0.169110
0.169110
0.169110
0.169110
0.169110
0.169110
0.169110
0.169110
0.169110
0.169110
0.169110
0.169110
0.169110
0.169110
0.169110
0.169110
0.169110
0.169110
0.169110
0.169110
0.169110
0.169110
0.169110
0.169110
0.169110
0.169110
0.169110
0.169110
0.169110
0.169110
0.169110
0.169110
0.169110
0.169110
0.169110
0.169110
0.169110
0.169110
0.169110
0.169110
0.169110
0.169110
0.169110
0.169110
0.169110
0.169110
0.169110
0.169110
0.169110
0.169110
0.169110
0.169110
0.169110
0.169110
0.169110
0.169110
0.169110
0.169110
0.169110
0.169110
0.169110
0.169110
0.169110
0.169110
0.169110
0.169110
0.169110
0.169110
0.169110
0.169110
0.169110
0.169110
0.169110
0.169110
0.169110
0.169110
0.169110
0.169110
0.169110
0.169110
0.169110
0.169110
0.169110
0.169110
0.169110
0.169110
0.169110
0.169110
0.169110
0.169110
0.169110
0.169110
0.169110
0.169110
0.169110
0.169110
0.169110
0.169110
0.169110
0.169110
0.169110
0.169110
0.169110
0.169110
0.169110
0.169110
0.169110
0.169110
0.169110
0.169110
0.169110
0.169110
0.169110
0.169110
0.169110
0.169110
0.169110
0.169110
0.169110
0.169110
0.169110
0.169110
0.170088
0.169110
0.169110
0.169110
0.169110
0.169110
0.169110
0.169110
0.169110
0.169110
0.169110
0.169110
0.169110
0.169110
0.169110
0.169110
0.169110
0.169110
0.169110
0.169110
0.169110
0.169110
0.169110
0.169110
0.169110
0.169110
0.169110
0.169110
0.169110
0.169110
0.169110
0.169110
0.169110
0.170088
0.169110
0.169110
0.169110
0.169110
0.169110
0.169110
0.169110
0.169110
0.169110
0.169110
0.169110
0.169110
0.169110
0.169110
0.169110
0.169110
0.169110
0.169110
0.169110
0.169110
0.169110
0.169110
0.169110
0.169110
0.169110
0.169110
0.169110
0.169110
0.169110
0.169110
0.169110
0.169110
0.169110
0.169110
0.169110
0.169110
0.169110
0.169110
0.169110
0.169110
0.169110
0.169110
0.169110
0.169110
0.169110
0.169110
0.169110
0.169110
0.169110
0.169110
0.169110
0.169110
0.169110
0.169110
0.169110
0.169110
0.169110
0.169110
0.169110
0.169110
0.169110
0.169110
0.169110
0.169110
0.169110
0.169110
0.169110
0.169110
0.169110
0.169110
0.169110
0.169110
0.169110
0.169110
0.169110
0.170088
0.169110
0.169110
0.169110
0.169110
0.169110
0.169110
0.169110
0.169110
0.169110
0.169110
0.169110
0.169110
0.169110
0.169110
0.169110
0.169110
0.169110
0.169110
0.169110
0.169110
0.169110
0.169110
0.169110
0.169110
0.169110
0.169110
0.169110
0.169110
0.169110
0.169110
0.169110
0.169110
0.169110
0.169110
0.169110
0.169110
0.169110
0.169110
0.169110
0.169110
0.169110
0.169110
0.169110
0.169110
0.169110
0.169110
0.169110
0.169110
0.169110
0.169110
0.169110
0.169110
0.169110
0.169110
0.169110
0.169110
0.169110
0.169110
0.169110
0.169110
0.169110
0.169110
0.169110
0.169110
0.169110
0.169110
0.169110
0.169110
0.169110
0.169110
0.169110
0.169110
0.169110
0.169110
0.169110
0.169110
0.169110
0.169110
0.169110
0.169110
0.169110
0.169110
0.169110
0.169110
0.169110
0.169110
0.169110
0.169110
0.169110
0.169110
0.169110
0.169110
0.169110
0.169110
0.169110
0.169110
0.169110
0.169110
0.169110
0.169110
0.169110
0.169110
0.169110
0.169110
0.169110
0.169110
0.169110
0.169110
0.169110
0.169110
0.169110
0.169110
0.169110
0.169110
0.169110
0.169110
0.169110
0.169110
0.169110
0.169110
0.169110
0.169110
0.169110
0.169110
0.169110
0.169110
0.169110
0.169110
0.169110
0.169110
0.169110
0.169110
0.169110
0.169110
0.169110
0.169110
0.169110
0.169110
0.169110
0.169110
0.169110
0.169110
0.169110
0.169110
0.169110
0.169110
0.169110
0.169110
0.169110
0.169110
0.169110
0.169110
0.169110
0.169110
0.169110
0.169110
0.169110
0.169110
0.169110
0.169110
0.169110
0.169110
0.169110
0.169110
0.169110
0.169110
0.169110
0.169110
0.169110
0.169110
0.169110
0.169110
0.169110
0.169110
0.169110
0.169110
0.169110
0.169110
0.169110
0.169110
0.169110
0.169110
0.169110
0.169110
0.169110
0.169110
0.169110
0.169110
0.169110
0.169110
0.169110
0.169110
0.169110
0.169110
0.169110
0.169110
0.169110
0.169110
0.169110
0.169110
0.169110
0.169110
0.169110
0.169110
0.169110
0.169110
0.169110
0.169110
0.169110
0.169110
0.169110
0.169110
0.169110
0.169110
0.169110
0.169110
0.169110
0.170088
0.169110
0.169110
0.169110
0.169110
0.169110
0.169110
0.169110
0.169110
0.169110
0.169110
0.169110
0.169110
0.169110
0.169110
0.169110
0.169110
0.169110
0.169110
0.169110
0.169110
0.169110
0.169110
0.169110
0.169110
0.169110
0.169110
0.169110
0.169110
0.169110
0.169110
0.169110
0.169110
0.169110
0.169110
0.169110
0.169110
0.169110
0.169110
0.169110
0.169110
0.169110
0.169110
0.169110
0.169110
0.169110
0.169110
0.169110
0.169110
0.169110
0.169110
0.169110
0.169110
0.169110
0.169110
0.169110
0.169110
0.169110
0.169110
0.169110
0.169110
0.169110
0.169110
0.169110
0.169110
0.169110
0.169110
0.169110
0.169110
0.169110
0.169110
0.169110
0.169110
0.169110
0.169110
0.169110
0.169110
0.169110
0.169110
0.169110
0.169110
0.169110
0.169110
0.169110
0.169110
0.169110
0.169110
0.169110
0.169110
0.169110
0.169110
0.169110
0.169110
0.169110
0.169110
0.169110
0.169110
0.169110
0.169110
0.169110
0.169110
0.169110
0.169110
0.169110
0.169110
0.169110
0.169110
0.169110
0.169110
0.169110
0.169110
0.169110
0.169110
0.169110
0.169110
0.169110
0.169110
0.169110
0.169110
0.169110
0.169110
0.169110
0.169110
0.169110
0.169110
0.169110
0.169110
0.169110
0.169110
0.169110
0.169110
0.169110
0.169110
0.169110
0.169110
0.169110
0.169110
0.169110
0.169110
0.169110
0.169110
0.169110
0.169110
0.169110
0.170088
0.169110
0.169110
0.169110
0.169110
0.169110
0.169110
0.169110
0.169110
0.169110
0.169110
0.169110
0.169110
0.169110
0.169110
0.169110
0.169110
0.169110
0.169110
0.169110
0.169110
0.169110
0.169110
0.169110
0.169110
0.169110
0.169110
0.169110
0.169110
0.169110
0.169110
0.169110
0.169110
0.169110
0.169110
0.169110
0.169110
0.169110
0.169110
0.169110
0.169110
0.169110
0.169110
0.169110
0.169110
0.169110
0.169110
0.169110
0.169110
0.169110
0.169110
0.169110
0.169110
0.169110
0.169110
0.169110
0.169110
0.169110
0.169110
0.169110
0.169110
0.169110
0.169110
0.169110
0.169110
0.169110
0.169110
0.169110
0.169110
0.169110
0.169110
0.169110
0.169110
0.169110
0.169110
0.169110
0.169110
0.169110
0.169110
0.169110
0.169110
0.169110
0.169110
0.169110
0.169110
0.169110
0.169110
0.169110
0.169110
0.169110
0.169110
0.169110
0.169110
0.169110
0.169110
0.169110
0.169110
0.169110
0.169110
0.169110
0.169110
0.169110
0.169110
0.169110
0.169110
0.169110
0.169110
0.169110
0.169110
0.169110
0.169110
0.169110
0.169110
0.169110
0.169110
0.169110
0.169110
0.169110
0.169110
0.169110
0.169110
0.169110
0.169110
0.169110
0.169110
0.169110
0.169110
0.169110
0.169110
0.169110
0.169110
0.169110
0.169110
0.169110
0.169110
0.169110
0.169110
0.169110
0.169110
0.169110
0.169110
0.169110
0.169110
0.169110
0.169110
0.169110
0.169110
0.169110
0.169110
0.169110
0.169110
0.169110
0.169110
0.169110
0.169110
0.169110
0.169110
0.169110
0.169110
0.169110
0.169110
0.169110
0.169110
0.169110
0.169110
0.169110
0.169110
0.169110
0.169110
0.169110
0.169110
0.169110
0.169110
0.169110
0.169110
0.169110
0.169110
0.169110
0.169110
0.169110
0.169110
0.169110
0.169110
0.169110
0.169110
0.169110
0.169110
0.169110
0.169110
0.169110
0.169110
0.169110
0.169110
0.169110
0.169110
0.169110
0.170088
0.169110
0.169110
0.169110
0.169110
0.169110
0.169110
0.169110
0.169110
0.169110
0.169110
0.169110
0.169110
0.169110
0.169110
0.169110
0.169110
0.169110
0.169110
0.169110
0.169110
0.169110
0.169110
0.169110
0.169110
0.169110
0.169110
0.169110
0.169110
0.169110
0.169110
0.169110
0.169110
0.169110
0.169110
0.169110
0.169110
0.169110
0.169110
0.169110
0.169110
0.169110
0.169110
0.169110
0.169110
0.169110
0.169110
0.169110
0.169110
0.169110
0.169110
0.169110
0.169110
0.169110
0.169110
0.169110
0.169110
0.169110
0.169110
0.169110
0.169110
0.169110
0.169110
0.169110
0.169110
0.169110
0.169110
0.169110
0.169110
0.169110
0.169110
0.169110
0.170088
0.169110
0.169110
0.169110
0.169110
0.169110
0.169110
0.169110
0.169110
0.169110
0.169110
0.169110
0.169110
0.169110
0.169110
0.169110
0.169110
0.169110
0.169110
0.169110
0.169110
0.169110
0.169110
0.169110
0.169110
0.169110
0.169110
0.169110
0.169110
0.169110
0.169110
0.169110
0.169110
0.169110
0.169110
0.169110
0.169110
0.169110
0.169110
0.169110
0.169110
0.169110
0.169110
0.169110
0.169110
0.169110
0.169110
0.169110
0.169110
0.169110
0.169110
0.169110
0.169110
0.169110
0.169110
0.169110
0.169110
0.169110
0.169110
0.169110
0.169110
0.169110
0.169110
0.169110
0.169110
0.169110
0.169110
0.169110
0.169110
0.169110
0.169110
0.169110
0.169110
0.169110
0.169110
0.169110
0.169110
0.169110
0.169110
0.169110
0.169110
0.169110
0.169110
0.169110
0.169110
0.169110
0.169110
0.169110
0.169110
0.169110
0.169110
0.169110
0.169110
0.169110
0.169110
0.169110
0.169110
0.169110
0.169110
0.169110
0.169110
0.169110
0.169110
0.169110
0.169110
0.169110
0.169110
0.169110
0.169110
0.169110
0.169110
0.169110
0.169110
0.169110
0.169110
0.169110
0.169110
0.169110
0.169110
0.169110
0.169110
0.169110
0.169110
0.169110
0.169110
0.169110
0.169110
0.169110
0.169110
0.169110
0.169110
0.169110
0.169110
0.169110
0.169110
0.169110
0.169110
0.169110
0.169110
0.169110
0.169110
0.169110
0.169110
0.169110
0.169110
0.169110
0.169110
0.169110
0.169110
0.169110
0.169110
0.169110
0.169110
0.169110
0.169110
0.169110
0.169110
0.169110
0.169110
0.169110
0.169110
0.169110
0.169110
0.169110
0.169110
0.169110
0.169110
0.169110
0.169110
0.169110
0.169110
0.169110
0.169110
0.169110
0.169110
0.169110
0.169110
0.169110
0.169110
0.169110
0.169110
0.169110
0.169110
0.169110
0.169110
0.169110
0.169110
0.169110
0.169110
0.169110
0.169110
0.169110
0.169110
0.169110
0.169110
0.169110
0.169110
0.169110
0.169110
0.169110
0.169110
0.169110
0.169110
0.169110
0.169110
0.169110
0.169110
0.169110
0.169110
0.169110
0.169110
0.169110
0.169110
0.169110
0.169110
0.169110
0.169110
0.169110
0.169110
0.169110
0.169110
0.169110
0.169110
0.169110
0.169110
0.169110
0.169110
0.169110
0.169110
0.169110
0.169110
0.169110
0.169110
0.169110
0.169110
0.169110
0.169110
0.169110
0.169110
0.169110
0.169110
0.169110
0.169110
0.169110
0.169110
0.169110
0.169110
0.169110
0.169110
0.169110
0.169110
0.169110
0.169110
0.169110
0.169110
0.169110
0.169110
0.169110
0.169110
0.169110
0.169110
0.169110
0.169110
0.169110
0.169110
0.169110
0.169110
0.169110
0.169110
0.169110
0.169110
0.169110
0.169110
0.169110
0.169110
0.169110
0.169110
0.169110
0.169110
0.169110
0.169110
0.169110
0.169110
0.169110
0.169110
0.169110
0.169110
0.169110
0.169110
0.169110
0.169110
0.169110
0.169110
0.169110
0.169110
0.169110
0.169110
0.169110
0.169110
0.169110
0.169110
0.169110
0.169110
0.169110
0.169110
0.169110
0.169110
0.169110
0.169110
0.169110
0.169110
0.169110
0.169110
0.169110
0.169110
0.169110
0.169110
0.169110
0.169110
0.169110
0.169110
0.169110
0.169110
0.169110
0.169110
0.169110
0.169110
0.169110
0.169110
0.169110
0.169110
0.169110
0.169110
0.169110
0.169110
0.169110
0.169110
0.169110
0.169110
0.169110
0.169110
0.169110
0.169110
0.169110
0.169110
0.169110
0.169110
0.169110
0.169110
0.169110
0.169110
0.169110
0.169110
0.169110
0.169110
0.169110
0.169110
0.169110
0.169110
0.169110
0.169110
0.169110
0.169110
0.169110
0.169110
0.169110
0.169110
0.169110
0.169110
0.169110
0.169110
0.169110
0.169110
0.169110
0.169110
0.169110
0.169110
0.169110
0.169110
0.169110
0.169110
0.169110
0.169110
0.169110
0.169110
0.169110
0.169110
0.169110
0.169110
0.169110
0.169110
0.169110
0.169110
0.169110
0.169110
0.169110
0.169110
0.169110
0.169110
0.169110
0.169110
0.169110
0.170088
0.169110
0.169110
0.169110
0.169110
0.169110
0.169110
0.169110
0.169110
0.169110
0.169110
0.169110
0.169110
0.169110
0.169110
0.169110
0.169110
0.169110
0.169110
0.169110
0.169110
0.169110
0.169110
0.169110
0.169110
0.169110
0.169110
0.169110
0.169110
0.169110
0.169110
0.169110
0.169110
0.169110
0.169110
0.169110
0.169110
0.169110
0.169110
0.169110
0.169110
0.169110
0.169110
0.169110
0.169110
0.169110
0.169110
0.169110
0.169110
0.169110
0.169110
0.169110
0.169110
0.169110
0.169110
0.169110
0.169110
0.169110
0.169110
0.169110
0.169110
0.169110
0.169110
0.169110
0.169110
0.169110
0.169110
0.169110
0.169110
0.169110
0.169110
0.169110
0.169110
0.169110
0.169110
0.169110
0.169110
0.169110
0.169110
0.169110
0.169110
0.169110
0.169110
0.169110
0.169110
0.169110
0.169110
0.169110
0.169110
0.169110
0.169110
0.169110
0.169110
0.169110
0.169110
0.169110
0.169110
0.169110
0.169110
0.169110
0.169110
0.169110
0.169110
0.169110
0.169110
0.169110
0.169110
0.169110
0.169110
0.169110
0.169110
0.169110
0.169110
0.169110
0.169110
0.169110
0.169110
0.169110
0.169110
0.169110
0.169110
0.169110
0.169110
0.169110
0.169110
0.169110
0.169110
0.169110
0.169110
0.169110
0.169110
0.169110
0.169110
0.169110
0.169110
0.169110
0.169110
0.169110
0.169110
0.169110
0.169110
0.169110
0.169110
0.169110
0.169110
0.169110
0.169110
0.169110
0.169110
0.169110
0.169110
0.169110
0.169110
0.169110
0.170088
0.169110
0.169110
0.169110
0.169110
0.169110
0.169110
0.169110
0.169110
0.169110
0.169110
0.169110
0.169110
0.169110
0.169110
0.169110
0.169110
0.169110
0.169110
0.169110
0.169110
0.169110
0.169110
0.169110
0.169110
0.169110
0.169110
0.169110
0.169110
0.169110
0.169110
0.169110
0.169110
0.169110
0.169110
0.169110
0.169110
0.169110
0.169110
0.169110
0.169110
0.169110
0.169110
0.169110
0.170088
0.169110
0.169110
0.170088
0.169110
0.169110
0.169110
0.169110
0.169110
0.169110
0.169110
0.169110
0.169110
0.169110
0.169110
0.169110
0.169110
0.169110
0.169110
0.169110
0.169110
0.169110
0.169110
0.169110
0.169110
0.169110
0.169110
0.169110
0.169110
0.169110
0.169110
0.169110
0.169110
0.169110
0.169110
0.169110
0.169110
0.169110
0.169110
0.169110
0.169110
0.169110
0.169110
0.169110
0.169110
0.169110
0.169110
0.169110
0.169110
0.169110
0.169110
0.169110
0.169110
0.169110
0.169110
0.169110
0.169110
0.169110
0.169110
0.169110
0.169110
0.169110
0.169110
0.169110
0.169110
0.169110
0.169110
0.169110
0.169110
0.169110
0.169110
0.169110
0.169110
0.169110
0.169110
0.169110
0.169110
0.169110
0.169110
0.169110
0.169110
0.169110
0.169110
0.169110
0.169110
0.169110
0.169110
0.169110
0.170088
0.169110
0.169110
0.169110
0.169110
0.169110
0.169110
0.169110
0.169110
0.169110
0.169110
0.169110
0.169110
0.169110
0.169110
0.169110
0.169110
0.169110
0.169110
0.169110
0.169110
0.169110
0.169110
0.169110
0.169110
0.169110
0.169110
0.169110
0.169110
0.169110
0.169110
0.169110
0.169110
0.169110
0.169110
0.169110
0.169110
0.169110
0.169110
0.169110
0.169110
0.169110
0.169110
0.169110
0.169110
0.169110
0.169110
0.169110
0.169110
0.169110
0.169110
0.169110
0.169110
0.169110
0.169110
0.169110
0.169110
0.169110
0.169110
0.169110
0.169110
0.169110
0.169110
0.169110
0.169110
0.169110
0.169110
0.169110
0.169110
0.169110
0.169110
0.169110
0.169110
0.169110
0.169110
0.169110
0.169110
0.169110
0.169110
0.169110
0.169110
0.169110
0.169110
0.169110
0.169110
0.169110
0.169110
0.169110
0.169110
0.169110
0.169110
0.169110
0.169110
0.169110
0.169110
0.169110
0.169110
0.169110
0.169110
0.169110
0.169110
0.169110
0.169110
0.169110
0.169110
0.169110
0.169110
0.169110
0.169110
0.169110
0.169110
0.169110
0.169110
0.169110
0.169110
0.169110
0.169110
0.169110
0.169110
0.169110
0.169110
0.169110
0.169110
0.169110
0.169110
0.169110
0.169110
0.169110
0.169110
0.169110
0.169110
0.169110
0.169110
0.169110
0.169110
0.169110
0.169110
0.169110
0.169110
0.169110
0.169110
0.169110
0.169110
0.169110
0.169110
0.169110
0.169110
0.169110
0.169110
0.169110
0.169110
0.169110
0.169110
0.169110
0.169110
0.169110
0.169110
0.169110
0.169110
0.169110
0.169110
0.169110
0.169110
0.169110
0.169110
0.169110
0.169110
0.169110
0.169110
0.169110
0.169110
0.169110
0.169110
0.169110
0.169110
0.169110
0.169110
0.169110
0.169110
0.169110
0.169110
0.169110
0.169110
0.169110
0.169110
0.169110
0.169110
0.169110
0.169110
0.169110
0.169110
0.169110
0.169110
0.169110
0.169110
0.169110
0.169110
0.169110
0.169110
0.169110
0.169110
0.169110
0.169110
0.169110
0.169110
0.169110
0.169110
0.169110
0.169110
0.169110
0.169110
0.169110
0.169110
0.169110
0.169110
0.169110
0.169110
0.169110
0.169110
0.169110
0.169110
0.169110
0.169110
0.169110
0.169110
0.169110
0.169110
0.169110
0.169110
0.169110
0.169110
0.169110
0.169110
0.169110
0.169110
0.169110
0.169110
0.169110
0.169110
0.169110
0.169110
0.169110
0.169110
0.169110
0.169110
0.169110
0.169110
0.169110
0.169110
0.169110
0.169110
0.169110
0.169110
0.169110
0.169110
0.169110
0.169110
0.169110
0.169110
0.169110
0.169110
0.169110
0.169110
0.169110
0.169110
0.169110
0.169110
0.169110
0.169110
0.169110
0.169110
0.169110
0.169110
0.169110
0.169110
0.169110
0.169110
0.169110
0.169110
0.169110
0.169110
0.169110
0.169110
0.169110
0.169110
0.169110
0.169110
0.169110
0.169110
0.169110
0.169110
0.169110
0.169110
0.169110
0.169110
0.169110
0.169110
0.169110
0.169110
0.169110
0.169110
0.169110
0.169110
0.169110
0.169110
0.169110
0.169110
0.169110
0.169110
0.169110
0.169110
0.169110
0.169110
0.169110
0.169110
0.169110
0.169110
0.169110
0.169110
0.169110
0.169110
0.169110
0.169110
0.169110
0.169110
0.169110
0.169110
0.169110
0.169110
0.169110
0.169110
0.169110
0.169110
0.169110
0.169110
0.169110
0.169110
0.169110
0.169110
0.169110
0.169110
0.169110
0.169110
0.169110
0.169110
0.169110
0.169110
0.169110
0.169110
0.169110
0.169110
0.169110
0.169110
0.169110
0.169110
0.169110
0.169110
0.169110
0.169110
0.169110
0.169110
0.169110
0.169110
0.169110
0.169110
0.169110
0.169110
0.169110
0.169110
0.169110
0.169110
0.169110
0.169110
0.169110
0.169110
0.169110
0.169110
0.169110
0.169110
0.169110
0.169110
0.169110
0.169110
0.169110
0.169110
0.169110
0.169110
0.169110
0.169110
0.169110
0.169110
0.169110
0.169110
0.169110
0.169110
0.169110
0.169110
0.169110
0.169110
0.169110
0.169110
0.169110
0.169110
0.169110
0.169110
0.169110
0.169110
0.169110
0.169110
0.169110
0.169110
0.169110
0.169110
0.169110
0.169110
0.169110
0.169110
0.169110
0.169110
0.169110
0.169110
0.169110
0.169110
0.169110
0.169110
0.169110
0.169110
0.169110
0.169110
0.169110
0.169110
0.169110
0.169110
0.169110
0.169110
0.169110
0.169110
0.169110
0.169110
0.169110
0.169110
0.169110
0.169110
0.169110
0.170088
0.169110
0.169110
0.169110
0.169110
0.169110
0.169110
0.169110
0.169110
0.169110
0.169110
0.169110
0.169110
0.169110
0.169110
0.169110
0.169110
0.169110
0.169110
0.169110
0.169110
0.169110
0.169110
0.169110
0.169110
0.169110
0.169110
0.169110
0.169110
0.169110
0.169110
0.169110
0.169110
0.169110
0.169110
0.169110
0.169110
0.169110
0.169110
0.169110
0.169110
0.169110
0.169110
0.169110
0.169110
0.169110
0.169110
0.169110
0.169110
0.169110
0.169110
0.169110
0.169110
0.169110
0.169110
0.169110
0.169110
0.169110
0.169110
0.169110
0.169110
0.169110
0.169110
0.169110
0.169110
0.169110
0.169110
0.169110
0.169110
0.169110
0.169110
0.169110
0.169110
0.169110
0.170088
0.169110
0.169110
0.169110
0.169110
0.169110
0.169110
0.169110
0.169110
0.169110
0.169110
0.169110
0.169110
0.169110
0.169110
0.169110
0.169110
0.169110
0.169110
0.169110
0.169110
0.169110
0.169110
0.169110
0.169110
0.170088
0.169110
0.169110
0.169110
0.169110
0.169110
0.169110
0.169110
0.169110
0.169110
0.169110
0.169110
0.169110
0.169110
0.169110
0.169110
0.169110
0.169110
0.169110
0.169110
0.169110
0.169110
0.169110
0.169110
0.169110
0.169110
0.169110
0.169110
0.169110
0.169110
0.169110
0.169110
0.169110
0.169110
0.169110
0.169110
0.169110
0.169110
0.169110
0.169110
0.169110
0.169110
0.169110
0.169110
0.169110
0.169110
0.169110
0.169110
0.169110
0.169110
0.169110
0.169110
0.169110
0.169110
0.169110
0.169110
0.169110
0.169110
0.169110
0.169110
0.169110
0.169110
0.169110
0.169110
0.169110
0.169110
0.169110
0.169110
0.169110
0.169110
0.169110
0.169110
0.169110
0.169110
0.169110
0.169110
0.169110
0.169110
0.169110
0.169110
0.169110
0.169110
0.169110
0.169110
0.169110
0.169110
0.169110
0.169110
0.169110
0.169110
0.169110
0.170088
0.169110
0.169110
0.169110
0.169110
0.169110
0.169110
0.169110
0.169110
0.169110
0.169110
0.169110
0.169110
0.169110
0.169110
0.169110
0.169110
0.169110
0.169110
0.169110
0.169110
0.169110
0.169110
0.169110
0.169110
0.169110
0.169110
0.169110
0.169110
0.169110
0.169110
0.169110
0.169110
0.169110
0.169110
0.169110
0.169110
0.169110
0.169110
0.169110
0.169110
0.169110
0.169110
0.169110
0.169110
0.169110
0.169110
0.169110
0.169110
0.169110
0.169110
0.169110
0.169110
0.169110
0.169110
0.169110
0.169110
0.169110
0.169110
0.169110
0.169110
0.169110
0.169110
0.169110
0.169110
0.169110
0.169110
0.169110
0.169110
0.169110
0.169110
0.169110
0.169110
0.169110
0.169110
0.169110
0.169110
0.169110
0.169110
0.169110
0.169110
0.169110
0.169110
0.169110
0.169110
0.169110
0.169110
0.169110
0.169110
0.169110
0.169110
0.169110
0.169110
0.169110
0.169110
0.169110
0.169110
0.169110
0.169110
0.169110
0.169110
0.169110
0.169110
0.169110
0.169110
0.169110
0.169110
0.169110
0.169110
0.169110
0.169110
0.169110
0.169110
0.169110
0.169110
0.169110
0.169110
0.169110
0.169110
0.169110
0.169110
0.169110
0.169110
0.169110
0.169110
0.169110
0.169110
0.169110
0.169110
0.169110
0.169110
0.169110
0.169110
0.169110
0.169110
0.169110
0.169110
0.169110
0.169110
0.169110
0.169110
0.169110
0.169110
0.169110
0.169110
0.169110
0.169110
0.169110
0.169110
0.169110
0.169110
0.169110
0.169110
0.169110
0.169110
0.169110
0.169110
0.169110
0.169110
0.169110
0.169110
0.169110
0.169110
0.169110
0.169110
0.169110
0.169110
0.169110
0.169110
0.169110
0.169110
0.169110
0.169110
0.169110
0.169110
0.169110
0.169110
0.169110
0.169110
0.169110
0.169110
0.169110
0.169110
0.169110
0.169110
0.169110
0.169110
0.169110
0.169110
0.169110
0.169110
0.169110
0.169110
0.169110
0.169110
0.169110
0.169110
0.169110
0.169110
0.169110
0.169110
0.169110
0.169110
0.169110
0.169110
0.169110
0.170088
0.169110
0.169110
0.169110
0.169110
0.169110
0.169110
0.169110
0.169110
0.169110
0.169110
0.169110
0.169110
0.169110
0.169110
0.169110
0.169110
0.169110
0.169110
0.169110
0.169110
0.169110
0.169110
0.169110
0.169110
0.169110
0.169110
0.169110
0.169110
0.169110
0.169110
0.169110
0.169110
0.169110
0.169110
0.169110
0.169110
0.169110
0.169110
0.169110
0.169110
0.169110
0.169110
0.169110
0.169110
0.169110
0.169110
0.169110
0.169110
0.169110
0.169110
0.169110
0.169110
0.169110
0.169110
0.169110
0.169110
0.169110
0.169110
0.169110
0.169110
0.169110
0.169110
0.169110
0.169110
0.169110
0.169110
0.169110
0.169110
0.169110
0.169110
0.169110
0.169110
0.169110
0.169110
0.169110
0.169110
0.169110
0.169110
0.169110
0.169110
0.169110
0.169110
0.169110
0.169110
0.169110
0.169110
0.169110
0.169110
0.169110
0.169110
0.169110
0.169110
0.169110
0.169110
0.169110
0.169110
0.169110
0.169110
0.169110
0.169110
0.169110
0.169110
0.169110
0.169110
0.169110
0.169110
0.169110
0.169110
0.169110
0.169110
0.169110
0.169110
0.169110
0.169110
0.169110
0.169110
0.169110
0.169110
0.169110
0.169110
0.169110
0.169110
0.169110
0.169110
0.169110
0.169110
0.169110
0.169110
0.169110
0.169110
0.169110
0.169110
0.169110
0.169110
0.169110
0.169110
0.169110
0.169110
0.169110
0.169110
0.169110
0.169110
0.169110
0.169110
0.169110
0.169110
0.169110
0.169110
0.169110
0.169110
0.169110
0.169110
0.169110
0.169110
0.169110
0.169110
0.169110
0.169110
0.169110
0.169110
0.169110
0.169110
0.169110
0.169110
0.169110
0.169110
0.169110
0.169110
0.169110
0.169110
0.169110
0.169110
0.169110
0.169110
0.169110
0.169110
0.169110
0.169110
0.169110
0.169110
0.169110
0.169110
0.169110
0.169110
0.169110
0.169110
0.169110
0.169110
0.169110
0.169110
0.169110
0.169110
0.169110
0.169110
0.169110
0.169110
0.169110
0.169110
0.169110
0.169110
0.169110
0.169110
0.169110
0.169110
0.169110
0.169110
0.169110
0.169110
0.169110
0.169110
0.169110
0.169110
0.169110
0.169110
0.169110
0.169110
0.169110
0.169110
0.169110
0.169110
0.169110
0.169110
0.169110
0.169110
0.169110
0.169110
0.169110
0.169110
0.169110
0.169110
0.169110
0.169110
0.169110
0.169110
0.169110
0.169110
0.169110
0.169110
0.169110
0.169110
0.169110
0.169110
0.169110
0.169110
0.169110
0.169110
0.169110
0.169110
0.169110
0.169110
0.169110
0.169110
0.169110
0.169110
0.169110
0.169110
0.169110
0.169110
0.169110
0.169110
0.169110
0.169110
0.169110
0.169110
0.169110
0.169110
0.169110
0.169110
0.169110
0.169110
0.169110
0.169110
0.169110
0.169110
0.169110
0.169110
0.169110
0.169110
0.169110
0.169110
0.169110
0.169110
0.169110
0.169110
0.169110
0.169110
0.169110
0.169110
0.170088
0.169110
0.169110
0.169110
0.169110
0.169110
0.169110
0.169110
0.169110
0.169110
0.169110
0.169110
0.169110
0.169110
0.169110
0.169110
0.169110
0.169110
0.169110
0.169110
0.169110
0.169110
0.169110
0.169110
0.169110
0.169110
0.169110
0.169110
0.169110
0.169110
0.169110
0.169110
0.169110
0.169110
0.169110
0.169110
0.169110
0.169110
0.169110
0.169110
0.169110
0.169110
0.169110
0.169110
0.169110
0.169110
0.169110
0.169110
0.169110
0.169110
0.169110
0.169110
0.169110
0.169110
0.169110
0.169110
0.169110
0.169110
0.169110
0.169110
0.169110
0.169110
0.169110
0.169110
0.169110
0.169110
0.169110
0.169110
0.169110
0.169110
0.169110
0.169110
0.169110
0.169110
0.169110
0.169110
0.169110
0.169110
0.169110
0.169110
0.169110
0.169110
0.169110
0.170088
0.169110
0.169110
0.169110
0.169110
0.169110
0.169110
0.169110
0.169110
0.169110
0.169110
0.169110
0.169110
0.169110
0.169110
0.169110
0.169110
0.169110
0.169110
0.169110
0.169110
0.169110
0.169110
0.169110
0.169110
0.170088
0.169110
0.169110
0.169110
0.169110
0.169110
0.169110
0.169110
0.169110
0.169110
0.169110
0.169110
0.169110
0.169110
0.169110
0.169110
0.169110
0.169110
0.170088
0.169110
0.169110
0.169110
0.169110
0.169110
0.169110
0.169110
0.169110
0.169110
0.169110
0.169110
0.169110
0.169110
0.169110
0.169110
0.169110
0.169110
0.169110
0.169110
0.169110
0.169110
0.169110
0.169110
0.169110
0.169110
0.169110
0.169110
0.169110
0.169110
0.169110
0.169110
0.169110
0.169110
0.169110
0.169110
0.169110
0.169110
0.169110
0.169110
0.169110
0.169110
0.169110
0.169110
0.169110
0.169110
0.169110
0.169110
0.169110
0.169110
0.169110
0.169110
0.169110
0.169110
0.169110
0.169110
0.169110
0.169110
0.169110
0.169110
0.169110
0.169110
0.169110
0.169110
0.169110
0.169110
0.169110
0.169110
0.169110
0.169110
0.169110
0.169110
0.169110
0.169110
0.169110
0.169110
0.169110
0.169110
0.169110
0.169110
0.169110
0.169110
0.169110
0.169110
0.169110
0.169110
0.169110
0.169110
0.169110
0.169110
0.169110
0.169110
0.169110
0.169110
0.169110
0.169110
0.169110
0.169110
0.169110
0.169110
0.169110
0.169110
0.169110
0.169110
0.169110
0.169110
0.169110
0.169110
0.169110
0.169110
0.169110
0.169110
0.169110
0.169110
0.169110
0.169110
0.169110
0.169110
0.169110
0.169110
0.169110
0.169110
0.169110
0.169110
0.169110
0.169110
0.169110
0.169110
0.169110
0.169110
0.169110
0.169110
0.169110
0.169110
0.169110
0.169110
0.169110
0.169110
0.169110
0.169110
0.169110
0.169110
0.169110
0.169110
0.169110
0.169110
0.169110
0.169110
0.169110
0.169110
0.169110
0.169110
0.169110
0.169110
0.169110
0.169110
0.169110
0.169110
0.169110
0.169110
0.169110
0.169110
0.169110
0.169110
0.169110
0.169110
0.169110
0.169110
0.169110
0.169110
0.169110
0.169110
0.169110
0.169110
0.169110
0.169110
0.169110
0.169110
0.169110
0.169110
0.169110
0.169110
0.169110
0.169110
0.169110
0.169110
0.169110
0.169110
0.169110
0.169110
0.169110
0.169110
0.169110
0.169110
0.169110
0.169110
0.169110
0.169110
0.169110
0.169110
0.169110
0.169110
0.169110
0.169110
0.169110
0.169110
0.169110
0.169110
0.169110
0.169110
0.169110
0.169110
0.169110
0.169110
0.169110
0.169110
0.169110
0.169110
0.169110
0.169110
0.169110
0.169110
0.169110
0.169110
0.169110
0.169110
0.169110
0.169110
0.169110
0.169110
0.169110
0.169110
0.169110
0.169110
0.169110
0.169110
0.169110
0.169110
0.169110
0.169110
0.169110
0.169110
0.169110
0.169110
0.169110
0.169110
0.169110
0.169110
0.169110
0.169110
0.169110
0.169110
0.169110
0.169110
0.169110
0.169110
0.169110
0.169110
0.169110
0.169110
0.169110
0.169110
0.170088
0.169110
0.169110
0.169110
0.169110
0.169110
0.169110
0.169110
0.169110
0.169110
0.169110
0.169110
0.169110
0.169110
0.169110
0.169110
0.169110
0.169110
0.169110
0.169110
0.169110
0.169110
0.169110
0.169110
0.169110
0.169110
0.169110
0.169110
0.169110
0.169110
0.169110
0.169110
0.169110
0.169110
0.169110
0.169110
0.169110
0.169110
0.169110
0.169110
0.169110
0.169110
0.169110
0.169110
0.169110
0.169110
0.169110
0.169110
0.169110
0.169110
0.169110
0.169110
0.169110
0.169110
0.169110
0.169110
0.169110
0.169110
0.169110
0.169110
0.169110
0.169110
0.169110
0.169110
0.169110
0.169110
0.169110
0.169110
0.169110
0.169110
0.169110
0.169110
0.169110
0.169110
0.169110
0.169110
0.169110
0.169110
0.169110
0.169110
0.169110
0.169110
0.169110
0.169110
0.169110
0.169110
0.169110
0.169110
0.169110
0.169110
0.169110
0.169110
0.169110
0.169110
0.169110
0.169110
0.169110
0.169110
0.169110
0.169110
0.169110
0.169110
0.169110
0.169110
0.169110
0.169110
0.169110
0.169110
0.169110
0.169110
0.169110
0.169110
0.169110
0.169110
0.169110
0.169110
0.169110
0.169110
0.169110
0.169110
0.169110
0.169110
0.169110
0.169110
0.169110
0.169110
0.169110
0.169110
0.169110
0.170088
0.169110
0.169110
0.169110
0.169110
0.169110
0.169110
0.169110
0.169110
0.169110
0.169110
0.169110
0.169110
0.169110
0.169110
0.169110
0.169110
0.169110
0.169110
0.169110
0.169110
0.169110
0.169110
0.169110
0.169110
0.169110
0.169110
0.169110
0.169110
0.169110
0.169110
0.169110
0.169110
0.169110
0.169110
0.169110
0.169110
0.169110
0.169110
0.169110
0.169110
0.169110
0.169110
0.169110
0.169110
0.169110
0.169110
0.169110
0.169110
0.169110
0.169110
0.169110
0.169110
0.169110
0.169110
0.169110
0.169110
0.169110
0.169110
0.169110
0.169110
0.169110
0.169110
0.169110
0.169110
0.169110
0.169110
0.169110
0.169110
0.169110
0.169110
0.169110
0.169110
0.169110
0.169110
0.169110
0.169110
0.169110
0.169110
0.169110
0.169110
0.169110
0.169110
0.169110
0.169110
0.169110
0.169110
0.169110
0.169110
0.169110
0.169110
0.169110
0.169110
0.169110
0.169110
0.169110
0.169110
0.169110
0.169110
0.169110
0.169110
0.169110
0.169110
0.169110
0.169110
0.169110
0.169110
0.169110
0.169110
0.169110
0.169110
0.169110
0.169110
0.169110
0.169110
0.169110
0.169110
0.169110
0.169110
0.169110
0.169110
0.169110
0.169110
0.169110
0.169110
0.169110
0.169110
0.169110
0.169110
0.169110
0.169110
0.169110
0.169110
0.169110
0.169110
0.169110
0.169110
0.169110
0.169110
0.169110
0.169110
0.169110
0.169110
0.169110
0.169110
0.169110
0.169110
0.169110
0.169110
0.169110
0.169110
0.169110
0.169110
0.169110
0.169110
0.169110
0.169110
0.169110
0.169110
0.169110
0.169110
0.169110
0.169110
0.169110
0.170088
0.169110
0.169110
0.169110
0.169110
0.169110
0.169110
0.169110
0.169110
0.169110
0.169110
0.169110
0.169110
0.169110
0.169110
0.169110
0.169110
0.169110
0.169110
0.169110
0.169110
0.169110
0.169110
0.169110
0.169110
0.169110
0.169110
0.169110
0.169110
0.169110
0.169110
0.169110
0.169110
0.169110
0.169110
0.169110
0.169110
0.169110
0.169110
0.169110
0.169110
0.169110
0.169110
0.169110
0.169110
0.169110
0.169110
0.169110
0.169110
0.169110
0.169110
0.169110
0.169110
0.169110
0.169110
0.169110
0.169110
0.169110
0.169110
0.169110
0.169110
0.169110
0.169110
0.169110
0.169110
0.169110
0.169110
0.169110
0.169110
0.169110
0.169110
0.169110
0.169110
0.169110
0.169110
0.169110
0.169110
0.169110
0.169110
0.169110
0.169110
0.169110
0.169110
0.169110
0.169110
0.169110
0.169110
0.169110
0.169110
0.169110
0.169110
0.169110
0.169110
0.169110
0.169110
0.169110
0.169110
0.169110
0.169110
0.169110
0.169110
0.169110
0.169110
0.169110
0.169110
0.169110
0.169110
0.169110
0.169110
0.169110
0.169110
0.169110
0.169110
0.169110
0.169110
0.169110
0.169110
0.169110
0.169110
0.169110
0.169110
0.169110
0.169110
0.169110
0.169110
0.169110
0.169110
0.169110
0.169110
0.169110
0.169110
0.169110
0.169110
0.169110
0.170088
0.169110
0.169110
0.169110
0.169110
0.169110
0.169110
0.169110
0.169110
0.169110
0.169110
0.169110
0.169110
0.169110
0.169110
0.169110
0.169110
0.169110
0.169110
0.169110
0.169110
0.169110
0.169110
0.169110
0.169110
0.169110
0.169110
0.169110
0.169110
0.169110
0.169110
0.169110
0.169110
0.169110
0.169110
0.169110
0.169110
0.169110
0.169110
0.169110
0.169110
0.169110
0.169110
0.169110
0.169110
0.169110
0.169110
0.169110
0.169110
0.169110
0.169110
0.169110
0.169110
0.169110
0.169110
0.169110
0.169110
0.169110
0.169110
0.169110
0.169110
0.169110
0.169110
0.169110
0.169110
0.169110
0.169110
0.169110
0.169110
0.169110
0.169110
0.169110
0.169110
0.169110
0.169110
0.169110
0.169110
0.169110
0.169110
0.169110
0.169110
0.169110
0.169110
0.169110
0.169110
0.169110
0.169110
0.169110
0.169110
0.169110
0.169110
0.169110
0.169110
0.169110
0.169110
0.169110
0.169110
0.169110
0.169110
0.169110
0.169110
0.169110
0.169110
0.169110
0.169110
0.169110
0.169110
0.169110
0.169110
0.169110
0.169110
0.169110
0.169110
0.169110
0.169110
0.169110
0.169110
0.169110
0.169110
0.169110
0.169110
0.169110
0.169110
0.169110
0.169110
0.169110
0.169110
0.169110
0.169110
0.169110
0.169110
0.169110
0.169110
0.169110
0.169110
0.169110
0.169110
0.169110
0.169110
0.169110
0.169110
0.169110
0.169110
0.169110
0.169110
0.169110
0.169110
0.169110
0.169110
0.169110
0.169110
0.169110
0.169110
0.169110
0.169110
0.169110
0.169110
0.169110
0.169110
0.169110
0.169110
0.169110
0.169110
0.169110
0.169110
0.169110
0.169110
0.169110
0.169110
0.169110
0.169110
0.169110
0.169110
0.169110
0.169110
0.169110
0.169110
0.169110
0.169110
0.169110
0.169110
0.169110
0.169110
0.169110
0.169110
0.169110
0.169110
0.169110
0.169110
0.169110
0.169110
0.169110
0.170088
0.169110
0.169110
0.169110
0.169110
0.169110
0.169110
0.169110
0.169110
0.169110
0.169110
0.169110
0.169110
0.169110
0.169110
0.169110
0.169110
0.169110
0.169110
0.169110
0.169110
0.169110
0.169110
0.169110
0.169110
0.169110
0.169110
0.169110
0.169110
0.169110
0.169110
0.169110
0.169110
0.169110
0.169110
0.169110
0.169110
0.169110
0.169110
0.169110
0.169110
0.169110
0.170088
0.169110
0.169110
0.169110
0.169110
0.169110
0.169110
0.169110
0.169110
0.169110
0.170088
0.169110
0.169110
0.169110
0.169110
0.169110
0.169110
0.169110
0.169110
0.169110
0.169110
0.169110
0.169110
0.169110
0.169110
0.169110
0.169110
0.169110
0.169110
0.169110
0.169110
0.169110
0.169110
0.169110
0.169110
0.169110
0.170088
0.169110
0.169110
0.169110
0.169110
0.169110
0.169110
0.169110
0.169110
0.169110
0.169110
0.169110
0.169110
0.169110
0.169110
0.169110
0.169110
0.169110
0.169110
0.169110
0.169110
0.169110
0.169110
0.169110
0.169110
0.169110
0.169110
0.169110
0.169110
0.169110
0.169110
0.169110
0.169110
0.169110
0.169110
0.169110
0.169110
0.169110
0.169110
0.169110
0.169110
0.169110
0.169110
0.169110
0.169110
0.169110
0.169110
0.169110
0.169110
0.169110
0.169110
0.169110
0.169110
0.169110
0.169110
0.169110
0.169110
0.169110
0.169110
0.169110
0.169110
0.169110
0.169110
0.169110
0.169110
0.169110
0.169110
0.169110
0.169110
0.169110
0.169110
0.169110
0.169110
0.169110
0.169110
0.169110
0.169110
0.169110
0.169110
0.169110
0.169110
0.169110
0.169110
0.169110
0.169110
0.169110
0.169110
0.169110
0.169110
0.169110
0.169110
0.169110
0.169110
0.169110
0.169110
0.169110
0.169110
0.169110
0.169110
0.169110
0.169110
0.169110
0.169110
0.169110
0.169110
0.169110
0.169110
0.169110
0.169110
0.169110
0.169110
0.169110
0.169110
0.169110
0.169110
0.169110
0.169110
0.169110
0.169110
0.169110
0.169110
0.169110
0.169110
0.169110
0.169110
0.169110
0.169110
0.169110
0.169110
0.169110
0.169110
0.169110
0.169110
0.169110
0.169110
0.169110
0.169110
0.169110
0.169110
0.169110
0.169110
0.169110
0.169110
0.169110
0.169110
0.169110
0.169110
0.169110
0.169110
0.169110
0.169110
0.169110
0.169110
0.169110
0.169110
0.169110
0.169110
0.169110
0.169110
0.169110
0.169110
0.169110
0.169110
0.169110
0.169110
0.169110
0.169110
0.169110
0.169110
0.169110
0.169110
0.169110
0.169110
0.169110
0.169110
0.169110
0.169110
0.169110
0.169110
0.169110
0.169110
0.169110
0.169110
0.169110
0.169110
0.169110
0.169110
0.169110
0.169110
0.169110
0.169110
0.169110
0.169110
0.169110
0.169110
0.169110
0.169110
0.169110
0.169110
0.169110
0.169110
0.169110
0.169110
0.169110
0.169110
0.169110
0.169110
0.169110
0.169110
0.169110
0.169110
0.169110
0.169110
0.169110
0.169110
0.169110
0.169110
0.169110
0.169110
0.169110
0.169110
0.169110
0.169110
0.169110
0.169110
0.169110
0.169110
0.169110
0.169110
0.169110
0.169110
0.169110
0.169110
0.169110
0.169110
0.169110
0.169110
0.169110
0.169110
0.169110
0.169110
0.169110
0.169110
0.169110
0.170088
0.169110
0.169110
0.169110
0.169110
0.169110
0.169110
0.169110
0.169110
0.169110
0.169110
0.169110
0.169110
0.169110
0.169110
0.169110
0.169110
0.169110
0.169110
0.169110
0.169110
0.169110
0.169110
0.169110
0.169110
0.169110
0.169110
0.169110
0.169110
0.169110
0.169110
0.169110
0.169110
0.169110
0.169110
0.169110
0.169110
0.169110
0.169110
0.169110
0.169110
0.169110
0.169110
0.169110
0.169110
0.169110
0.169110
0.169110
0.169110
0.169110
0.169110
0.169110
0.169110
0.169110
0.169110
0.169110
0.169110
0.169110
0.169110
0.169110
0.169110
0.169110
0.169110
0.169110
0.169110
0.169110
0.169110
0.169110
0.169110
0.169110
0.169110
0.169110
0.169110
0.169110
0.169110
0.169110
0.169110
0.169110
0.169110
0.169110
0.169110
0.169110
0.169110
0.169110
0.169110
0.169110
0.169110
0.169110
0.169110
0.169110
0.169110
0.169110
0.169110
0.169110
0.169110
0.169110
0.169110
0.169110
0.169110
0.169110
0.169110
0.169110
0.169110
0.169110
0.169110
0.169110
0.169110
0.169110
0.169110
0.169110
0.169110
0.169110
0.169110
0.169110
0.169110
0.169110
0.169110
0.169110
0.169110
0.169110
0.169110
0.169110
0.169110
0.169110
0.169110
0.169110
0.169110
0.169110
0.169110
0.169110
0.169110
0.169110
0.169110
0.169110
0.169110
0.169110
0.169110
0.169110
0.169110
0.169110
0.169110
0.169110
0.169110
0.169110
0.169110
0.169110
0.169110
0.169110
0.169110
0.169110
0.169110
0.169110
0.169110
0.169110
0.169110
0.169110
0.169110
0.169110
0.169110
0.169110
0.169110
0.169110
0.169110
0.170088
0.169110
0.169110
0.169110
0.169110
0.169110
0.169110
0.169110
0.169110
0.169110
0.169110
0.169110
0.169110
0.169110
0.169110
0.169110
0.169110
0.169110
0.169110
0.169110
0.169110
0.169110
0.169110
0.169110
0.169110
0.169110
0.169110
0.169110
0.169110
0.169110
0.169110
0.169110
0.169110
0.169110
0.169110
0.169110
0.169110
0.169110
0.169110
0.169110
0.169110
0.169110
0.169110
0.169110
0.169110
0.169110
0.169110
0.169110
0.169110
0.169110
0.169110
0.169110
0.169110
0.169110
0.169110
0.169110
0.169110
0.169110
0.169110
0.169110
0.169110
0.169110
0.169110
0.169110
0.169110
0.169110
0.169110
0.169110
0.169110
0.169110
0.169110
0.169110
0.169110
0.169110
0.169110
0.169110
0.169110
0.169110
0.169110
0.169110
0.169110
0.169110
0.169110
0.169110
0.169110
0.169110
0.169110
0.169110
0.169110
0.169110
0.169110
0.169110
0.170088
0.169110
0.169110
0.169110
0.169110
0.169110
0.169110
0.169110
0.169110
0.169110
0.169110
0.169110
0.169110
0.169110
0.169110
0.169110
0.169110
0.169110
0.169110
0.169110
0.169110
0.169110
0.169110
0.169110
0.169110
0.169110
0.169110
0.169110
0.169110
0.169110
0.169110
0.169110
0.169110
0.169110
0.169110
0.169110
0.169110
0.169110
0.169110
0.169110
0.169110
0.169110
0.169110
0.169110
0.169110
0.169110
0.169110
0.169110
0.169110
0.169110
0.169110
0.169110
0.169110
0.169110
0.169110
0.169110
0.169110
0.169110
0.169110
0.169110
0.169110
0.169110
0.169110
0.169110
0.169110
0.169110
0.169110
0.169110
0.169110
0.169110
0.169110
0.169110
0.169110
0.169110
0.169110
0.169110
0.169110
0.169110
0.169110
0.169110
0.169110
0.169110
0.169110
0.169110
0.169110
0.169110
0.169110
0.169110
0.169110
0.169110
0.169110
0.169110
0.169110
0.169110
0.169110
0.169110
0.169110
0.169110
0.169110
0.169110
0.169110
0.169110
0.169110
0.169110
0.169110
0.169110
0.169110
0.169110
0.169110
0.169110
0.169110
0.169110
0.169110
0.169110
0.169110
0.169110
0.169110
0.169110
0.169110
0.169110
0.169110
0.169110
0.169110
0.169110
0.169110
0.169110
0.169110
0.169110
0.169110
0.169110
0.169110
0.169110
0.169110
0.169110
0.169110
0.169110
0.169110
0.169110
0.169110
0.169110
0.169110
0.169110
0.169110
0.169110
0.169110
0.169110
0.169110
0.169110
0.169110
0.169110
0.169110
0.169110
0.169110
0.169110
0.169110
0.169110
0.169110
0.169110
0.169110
0.169110
0.169110
0.169110
0.169110
0.169110
0.169110
0.169110
0.169110
0.169110
0.169110
0.169110
0.169110
0.169110
0.169110
0.169110
0.169110
0.169110
0.169110
0.169110
0.169110
0.169110
0.169110
0.169110
0.169110
0.169110
0.169110
0.169110
0.169110
0.169110
0.169110
0.169110
0.169110
0.169110
0.169110
0.169110
0.169110
0.169110
0.169110
0.169110
0.169110
0.169110
0.169110
0.169110
0.169110
0.169110
0.169110
0.169110
0.169110
0.169110
0.169110
0.169110
0.169110
0.169110
0.169110
0.169110
0.169110
0.169110
0.169110
0.169110
0.169110
0.169110
0.169110
0.169110
0.169110
0.169110
0.169110
0.169110
0.169110
0.169110
0.169110
0.169110
0.169110
0.169110
0.169110
0.169110
0.169110
0.169110
0.169110
0.169110
0.169110
0.169110
0.169110
0.169110
0.169110
0.169110
0.169110
0.169110
0.169110
0.169110
0.169110
0.169110
0.169110
0.169110
0.169110
0.169110
0.169110
0.169110
0.169110
0.169110
0.169110
0.169110
0.169110
0.169110
0.169110
0.169110
0.169110
0.169110
0.169110
0.169110
0.169110
0.169110
0.169110
0.169110
0.169110
0.169110
0.169110
0.169110
0.169110
0.169110
0.169110
0.169110
0.169110
0.169110
0.169110
0.169110
0.169110
0.169110
0.169110
0.169110
0.169110
0.169110
0.169110
0.169110
0.169110
0.169110
0.169110
0.169110
0.169110
0.169110
0.169110
0.169110
0.169110
0.169110
0.169110
0.169110
0.169110
0.169110
0.169110
0.169110
0.169110
0.169110
0.169110
0.169110
0.169110
0.169110
0.169110
0.169110
0.169110
0.169110
0.169110
0.169110
0.169110
0.169110
0.169110
0.169110
0.169110
0.169110
0.169110
0.169110
0.169110
0.169110
0.169110
0.169110
0.170088
0.169110
0.169110
0.169110
0.169110
0.169110
0.169110
0.169110
0.169110
0.169110
0.169110
0.169110
0.169110
0.169110
0.169110
0.169110
0.169110
0.169110
0.169110
0.169110
0.169110
0.169110
0.169110
0.169110
0.169110
0.169110
0.169110
0.169110
0.169110
0.169110
0.169110
0.169110
0.169110
0.169110
0.169110
0.169110
0.169110
0.169110
0.169110
0.169110
0.169110
0.169110
0.169110
0.169110
0.169110
0.169110
0.169110
0.169110
0.169110
0.169110
0.169110
0.169110
0.169110
0.169110
0.169110
0.169110
0.169110
0.169110
0.169110
0.169110
0.169110
0.169110
0.169110
0.169110
0.169110
0.169110
0.169110
0.169110
0.169110
0.169110
0.169110
0.169110
0.169110
0.169110
0.169110
0.169110
0.169110
0.169110
0.169110
0.169110
0.169110
0.169110
0.169110
0.169110
0.169110
0.169110
0.169110
0.169110
0.169110
0.169110
0.169110
0.169110
0.169110
0.169110
0.169110
0.169110
0.169110
0.169110
0.169110
0.169110
0.169110
0.169110
0.169110
0.169110
0.169110
0.169110
0.169110
0.169110
0.169110
0.169110
0.169110
0.169110
0.169110
0.169110
0.169110
0.169110
0.169110
0.169110
0.169110
0.169110
0.169110
0.169110
0.169110
0.169110
0.169110
0.169110
0.169110
0.169110
0.169110
0.169110
0.169110
0.169110
0.169110
0.169110
0.169110
0.169110
0.169110
0.169110
0.169110
0.169110
0.169110
0.169110
0.169110
0.169110
0.169110
0.169110
0.169110
0.169110
0.169110
0.169110
0.169110
0.169110
0.169110
0.169110
0.169110
0.169110
0.169110
0.169110
0.169110
0.169110
0.169110
0.169110
0.169110
0.169110
0.169110
0.169110
0.169110
0.169110
0.169110
0.169110
0.169110
0.169110
0.169110
0.169110
0.169110
0.169110
0.169110
0.169110
0.169110
0.169110
0.169110
0.169110
0.169110
0.169110
0.169110
0.169110
0.169110
0.169110
0.169110
0.169110
0.169110
0.169110
0.169110
0.169110
0.169110
0.169110
0.169110
0.169110
0.169110
0.169110
0.169110
0.169110
0.169110
0.169110
0.169110
0.169110
0.169110
0.169110
0.169110
0.169110
0.169110
0.169110
0.169110
0.169110
0.169110
0.169110
0.169110
0.169110
0.169110
0.169110
0.169110
0.169110
0.169110
0.169110
0.169110
0.169110
0.169110
0.169110
0.169110
0.169110
0.169110
0.169110
0.169110
0.169110
0.169110
0.169110
0.169110
0.169110
0.169110
0.169110
0.169110
0.169110
0.169110
0.169110
0.169110
0.169110
0.169110
0.169110
0.169110
0.169110
0.169110
0.169110
0.169110
0.169110
0.169110
0.169110
0.169110
0.169110
0.169110
0.169110
0.169110
0.169110
0.169110
0.169110
0.169110
0.169110
0.169110
0.169110
0.169110
0.169110
0.169110
0.169110
0.169110
0.169110
0.169110
0.169110
0.169110
0.169110
0.169110
0.169110
0.169110
0.169110
0.169110
0.169110
0.169110
0.169110
0.169110
0.169110
0.169110
0.169110
0.169110
0.169110
0.169110
0.169110
0.169110
0.169110
0.169110
0.169110
0.169110
0.169110
0.169110
0.169110
0.169110
0.169110
0.169110
0.169110
0.169110
0.169110
0.169110
0.169110
0.169110
0.169110
0.169110
0.169110
0.169110
0.169110
0.169110
0.169110
0.169110
0.169110
0.169110
0.169110
0.169110
0.169110
0.169110
